project_regression
…
In [78]:

cat("\n====== MODEL 3: price ~ carat + cut + color + clarity + 
depth + table + x + y + z ======\n")
rank_m3 <- rank_betas(model3)
print(rank_m3, n = 20)  # viele Terme durch Faktoren

====== MODEL 3: price ~ carat + cut + color + clarity + 
depth + table + x + y + z ======
# A tibble: 23 × 3
   term         beta abs_beta
   <chr>       <dbl>    <dbl>
 1 carat     11507.   11507. 
 2 clarity.L  4060.    4060. 
 3 color.L   -1919.    1919. 
 4 clarity.Q -1909.    1909. 
 5 z         -1672.    1672. 
 6 clarity.C   951.     951. 
 7 color.Q    -646.     646. 
 8 cut.L       564.     564. 
 9 clarity^4  -357.     357. 
10 cut.Q      -282.     282. 
11 clarity^5   236.     236. 
12 x          -234.     234. 
13 color.C    -169.     169. 
14 cut.C       129.     129. 
15 y           124.     124. 
16 color^5     -89.9     89.9
17 clarity^7    88.9     88.9
18 color^4      63.5     63.5
19 color^6     -30.1     30.1
20 table       -27.9     27.9
# ℹ 3 more rows
…
